{
    "_id": "5dff6e1014569703166749d9",
    "tags": [
        "avionic"
    ],
    "icon": "icons/en/fire_suppression.ff5f23593d0850514dd7b63c3a16d8c9.png",
    "thumb": "icons/en/thumbs/fire_suppression.ff5f23593d0850514dd7b63c3a16d8c9.128x128.png",
    "icon_format": "port",
    "url_name": "fire_suppression",
    "tradable": true,
    "en": {
        "item_name": "Fire Suppression",
        "description": "A Tactical Avionics that extinguishes a number of fire hazards and or electrical hazards. Cooldown of 300s.",
        "wiki_link": "https://warframe.fandom.com/wiki/Avionics#Fire_Suppression",
        "drop": [
            {
                "name": "Kosma Flak",
                "link": null
            },
            {
                "name": "Gyre Flak",
                "link": null
            }
        ]
    },
    "ru": {
        "item_name": "Fire Suppression",
        "description": "A Tactical Avionics that extinguishes a number of fire hazards and or electrical hazards. Cooldown of 300s.",
        "wiki_link": "https://warframe.fandom.com/wiki/Avionics#Fire_Suppression",
        "drop": [
            {
                "name": "Kosma Flak",
                "link": null
            },
            {
                "name": "Gyre Flak",
                "link": null
            }
        ]
    },
    "ko": {
        "item_name": "Fire Suppression",
        "description": "A Tactical Avionics that extinguishes a number of fire hazards and or electrical hazards. Cooldown of 300s.",
        "wiki_link": "https://warframe.fandom.com/wiki/Avionics#Fire_Suppression",
        "drop": [
            {
                "name": "Kosma Flak",
                "link": null
            },
            {
                "name": "Gyre Flak",
                "link": null
            }
        ]
    },
    "mod_max_rank": 4
}