{
    "_id": "5dff6e111456970316674a0d",
    "tags": [
        "avionic"
    ],
    "icon": "icons/en/intruder_stasis.ff5f23593d0850514dd7b63c3a16d8c9.png",
    "thumb": "icons/en/thumbs/intruder_stasis.ff5f23593d0850514dd7b63c3a16d8c9.128x128.png",
    "icon_format": "port",
    "url_name": "intruder_stasis",
    "tradable": true,
    "en": {
        "item_name": "Intruder Stasis",
        "description": "A Tactical Avionics that temporarily freezes all Enemy Boarding Parties. Cooldown of 300s.",
        "wiki_link": "https://warframe.fandom.com/wiki/Avionics#Intruder_Stasis",
        "drop": [
            {
                "name": "Elite Gyre Flak",
                "link": null
            }
        ]
    },
    "ru": {
        "item_name": "Intruder Stasis",
        "description": "A Tactical Avionics that temporarily freezes all Enemy Boarding Parties. Cooldown of 300s.",
        "wiki_link": "https://warframe.fandom.com/wiki/Avionics#Intruder_Stasis",
        "drop": [
            {
                "name": "Elite Gyre Flak",
                "link": null
            }
        ]
    },
    "ko": {
        "item_name": "Intruder Stasis",
        "description": "A Tactical Avionics that temporarily freezes all Enemy Boarding Parties. Cooldown of 300s.",
        "wiki_link": "https://warframe.fandom.com/wiki/Avionics#Intruder_Stasis",
        "drop": [
            {
                "name": "Elite Gyre Flak",
                "link": null
            }
        ]
    },
    "mod_max_rank": 4
}