{
    "_id": "5dff6e1014569703166749e5",
    "tags": [
        "avionic"
    ],
    "icon": "icons/en/ion_burn_(zetki).ff5f23593d0850514dd7b63c3a16d8c9.png",
    "thumb": "icons/en/thumbs/ion_burn_(zetki).ff5f23593d0850514dd7b63c3a16d8c9.128x128.png",
    "icon_format": "port",
    "url_name": "ion_burn_(zetki)",
    "tradable": true,
    "en": {
        "item_name": "Ion Burn (Zetki)",
        "description": "A Integrated Avionics that increases Boost Speed",
        "wiki_link": "https://warframe.fandom.com/wiki/Avionics#Ion_Burn",
        "drop": [
            {
                "name": "Kosma Outrider",
                "link": null
            },
            {
                "name": "Elite Kosma Cutter",
                "link": null
            },
            {
                "name": "Gyre Cutter",
                "link": null
            }
        ]
    },
    "ru": {
        "item_name": "Ion Burn (Zetki)",
        "description": "A Integrated Avionics that increases Boost Speed",
        "wiki_link": "https://warframe.fandom.com/wiki/Avionics#Ion_Burn",
        "drop": [
            {
                "name": "Kosma Outrider",
                "link": null
            },
            {
                "name": "Elite Kosma Cutter",
                "link": null
            },
            {
                "name": "Gyre Cutter",
                "link": null
            }
        ]
    },
    "ko": {
        "item_name": "Ion Burn (Zetki)",
        "description": "A Integrated Avionics that increases Boost Speed",
        "wiki_link": "https://warframe.fandom.com/wiki/Avionics#Ion_Burn",
        "drop": [
            {
                "name": "Kosma Outrider",
                "link": null
            },
            {
                "name": "Elite Kosma Cutter",
                "link": null
            },
            {
                "name": "Gyre Cutter",
                "link": null
            }
        ]
    },
    "mod_max_rank": 4
}