{
    "_id": "5df955131456970150510f24",
    "tags": [
        "parts",
        "pistol",
        "link",
        "prime"
    ],
    "icon": "icons/en/aksomati_prime_link.617fca3e38e6696ec87a6c28bd6bbebf.png",
    "thumb": "icons/en/thumbs/aksomati_prime_link.617fca3e38e6696ec87a6c28bd6bbebf.128x128.png",
    "icon_format": "port",
    "sub_icon": "sub_icons/link_128x128.png",
    "url_name": "aksomati_prime_link",
    "tradable": true,
    "part_of_set": [
        "5df955131456970150510f23",
        "5df955131456970150510f24",
        "5df955131456970150510f26",
        "5df955141456970150510f28",
        "5df955141456970150510f2a"
    ],
    "set_root": false,
    "en": {
        "item_name": "Aksomati Prime Link",
        "description": "<p></p>",
        "wiki_link": "https://warframe.fandom.com/wiki/Aksomati/Prime",
        "drop": [
            {
                "name": "Axi A8 Rare",
                "link": null
            }
        ]
    },
    "ru": {
        "item_name": "Аксомати прайм Связь",
        "description": "<p></p>",
        "wiki_link": "https://warframe.fandom.com/wiki/Aksomati/Prime",
        "drop": [
            {
                "name": "Axi A8 Rare",
                "link": null
            }
        ]
    },
    "ko": {
        "item_name": "Aksomati Prime Link",
        "description": "<p></p>",
        "wiki_link": "https://warframe.fandom.com/wiki/Aksomati/Prime",
        "drop": [
            {
                "name": "Axi A8 Rare",
                "link": null
            }
        ]
    },
    "mastery_level": 12,
    "trading_tax": 2000
}