{
    "_id": "5dff6e1014569703166749d4",
    "tags": [
        "avionic"
    ],
    "icon": "icons/en/anode_cell_(zetki).ff5f23593d0850514dd7b63c3a16d8c9.png",
    "thumb": "icons/en/thumbs/anode_cell_(zetki).ff5f23593d0850514dd7b63c3a16d8c9.128x128.png",
    "icon_format": "port",
    "url_name": "anode_cell_(zetki)",
    "tradable": true,
    "en": {
        "item_name": "Anode Cell (Zetki)",
        "description": "A Integrated Avionics that increases shield recharge rate.",
        "wiki_link": "https://warframe.fandom.com/wiki/Avionics#Anode_Cell",
        "drop": []
    },
    "ru": {
        "item_name": "Anode Cell (Zetki)",
        "description": "A Integrated Avionics that increases shield recharge rate.",
        "wiki_link": "https://warframe.fandom.com/wiki/Avionics#Anode_Cell",
        "drop": []
    },
    "ko": {
        "item_name": "Anode Cell (Zetki)",
        "description": "A Integrated Avionics that increases shield recharge rate.",
        "wiki_link": "https://warframe.fandom.com/wiki/Avionics#Anode_Cell",
        "drop": []
    },
    "mod_max_rank": 7
}