{
    "_id": "551085c9e7798972b4a2b206",
    "tags": [
        "arcane enhancements"
    ],
    "icon": "icons/en/Arcane_Ice.d3cb62ba9923dcf396c854fb857e5718.png",
    "thumb": "icons/en/thumbs/Arcane_Ice.d3cb62ba9923dcf396c854fb857e5718.128x128.png",
    "icon_format": "land",
    "url_name": "arcane_ice",
    "tradable": true,
    "en": {
        "item_name": "Arcane Ice",
        "description": "<p>Arcane Ice is an Arcane Enhancement that provides a chance to resist a  Heat damage effect entirely.</p>",
        "wiki_link": "http://warframe.wikia.com/wiki/Arcane_Ice",
        "drop": []
    },
    "ru": {
        "item_name": "Мистический Лёд",
        "description": "<p>Мистический Лёд - необычный мистификатор, который пассивно увеличивает сопротивление к  огню на 10%. На максимальном ранге мистификатора бонус сопротивления к  огню составляет 40%. </p>",
        "wiki_link": "http://ru.warframe.wikia.com/wiki/%D0%9C%D0%B8%D1%81%D1%82%D0%B8%D1%87%D0%B5%D1%81%D0%BA%D0%B8%D0%B9_%D0%9B%D1%91%D0%B4",
        "drop": []
    },
    "ko": {
        "item_name": "아케인 아이스",
        "description": "<p>Arcane Ice is an Arcane Enhancement that provides a chance to resist a  Heat damage effect entirely.</p>",
        "wiki_link": "http://warframe.wikia.com/wiki/Arcane_Ice",
        "drop": []
    },
    "rarity": "common",
    "mod_max_rank": 3,
    "trading_tax": 2000
}