{
    "_id": "5d8765df7ea27b08950c13ca",
    "tags": [
        "arcane enhancements"
    ],
    "icon": "icons/en/arcane_tanker.bedeb0f2ceb9e91f99f682b990c09648.png",
    "thumb": "icons/en/thumbs/arcane_tanker.bedeb0f2ceb9e91f99f682b990c09648.128x128.png",
    "icon_format": "land",
    "url_name": "arcane_tanker",
    "tradable": true,
    "en": {
        "item_name": "Arcane Tanker",
        "description": "<p>Arcane Tanker is an Arcane Enhancement that provides additional Armor for a short time upon equipping an Arch-gun.</p>",
        "wiki_link": "https://warframe.fandom.com/wiki/Arcane_Tanker",
        "drop": [
            {
                "name": "Arbitrations",
                "link": null
            }
        ]
    },
    "ru": {
        "item_name": "Мистический Танк",
        "description": "<p>Мистический Танк - редкий мистификатор, который увеличивает броню при вызове арчвинг оружия.</p>",
        "wiki_link": "https://warframe.fandom.com/ru/wiki/%D0%9C%D0%B8%D1%81%D1%82%D0%B8%D1%87%D0%B5%D1%81%D0%BA%D0%B8%D0%B9_%D0%A2%D0%B0%D0%BD%D0%BA",
        "drop": [
            {
                "name": "Награда за Арбитраж",
                "link": null
            }
        ]
    },
    "ko": {
        "item_name": "아케인 탱커",
        "description": "<p>Arcane Tanker is an Arcane Enhancement that provides additional Armor for a short time upon equipping an Arch-gun.</p>",
        "wiki_link": "https://warframe.fandom.com/wiki/Arcane_Tanker",
        "drop": [
            {
                "name": "Arbitrations",
                "link": null
            }
        ]
    },
    "rarity": "rare",
    "mod_max_rank": 3,
    "trading_tax": 8000
}