{
    "_id": "551085e4e7798972c7353fb0",
    "tags": [
        "arcane enhancements"
    ],
    "icon": "icons/en/Arcane_Strike.27c40994b55f506fe736175c9cebbf0e.png",
    "thumb": "icons/en/thumbs/Arcane_Strike.27c40994b55f506fe736175c9cebbf0e.128x128.png",
    "icon_format": "land",
    "url_name": "arcane_strike",
    "tradable": true,
    "en": {
        "item_name": "Arcane Strike",
        "description": "<p>Arcane Strike is an Arcane Enhancement that provides a chance on each hit with any weapon to increase the speed of melee attacks for a short time.</p>",
        "wiki_link": "http://warframe.wikia.com/wiki/Arcane_Strike",
        "drop": []
    },
    "ru": {
        "item_name": "Мистический удар",
        "description": "<p>Мистический удар — обычный мистификатор, который увеличивает скорость атаки оружия ближнего боя на 5% при нанесении урона с шансом 2.5% в течение 3-ёх секунд. На максимальном ранге мистификатора скорость атаки оружия ближнего боя составляет 20% в течение 12 секунд, а шанс срабатывания 10%.</p>",
        "wiki_link": "http://ru.warframe.wikia.com/wiki/%D0%9C%D0%B8%D1%81%D1%82%D0%B8%D1%87%D0%B5%D1%81%D0%BA%D0%B8%D0%B9_%D1%83%D0%B4%D0%B0%D1%80",
        "drop": []
    },
    "ko": {
        "item_name": "아케인 스트라이크",
        "description": "<p>Arcane Strike is an Arcane Enhancement that provides a chance on each hit with any weapon to increase the speed of melee attacks for a short time.</p>",
        "wiki_link": "http://warframe.wikia.com/wiki/Arcane_Strike",
        "drop": []
    },
    "rarity": "uncommon",
    "mod_max_rank": 3,
    "trading_tax": 4000
}