{
    "_id": "5d8765de7ea27b08950c13bf",
    "tags": [
        "arcane enhancements"
    ],
    "icon": "icons/en/arcane_primary_charger.bedeb0f2ceb9e91f99f682b990c09648.png",
    "thumb": "icons/en/thumbs/arcane_primary_charger.bedeb0f2ceb9e91f99f682b990c09648.128x128.png",
    "icon_format": "land",
    "url_name": "arcane_primary_charger",
    "tradable": true,
    "en": {
        "item_name": "Arcane Primary Charger",
        "description": "<p>Arcane Primary Charger is an Arcane Enhancement that provides a chance on killing an enemy with a melee to increase the damage of primary weapons for a short time.</p>",
        "wiki_link": "https://warframe.fandom.com/wiki/Arcane_Primary_Charger",
        "drop": [
            {
                "name": "Arbitrations",
                "link": null
            }
        ]
    },
    "ru": {
        "item_name": "Мистический Усилитель Винтовок",
        "description": "<p>Мистический Усилитель Винтовок - редкий мистификатор, который увеличивает урон основного оружия при убийстве в ближнем бою.</p>",
        "wiki_link": "https://warframe.fandom.com/ru/wiki/%D0%9C%D0%B8%D1%81%D1%82%D0%B8%D1%87%D0%B5%D1%81%D0%BA%D0%B8%D0%B9_%D0%A3%D1%81%D0%B8%D0%BB%D0%B8%D1%82%D0%B5%D0%BB%D1%8C_%D0%92%D0%B8%D0%BD%D1%82%D0%BE%D0%B2%D0%BE%D0%BA",
        "drop": [
            {
                "name": "Награда за Арбитраж",
                "link": null
            }
        ]
    },
    "ko": {
        "item_name": "아케인 프라이머리 차저",
        "description": "<p>Arcane Primary Charger is an Arcane Enhancement that provides a chance on killing an enemy with a melee to increase the damage of primary weapons for a short time.</p>",
        "wiki_link": "https://warframe.fandom.com/wiki/Arcane_Primary_Charger",
        "drop": [
            {
                "name": "Arbitrations",
                "link": null
            }
        ]
    },
    "rarity": "rare",
    "mod_max_rank": 3,
    "trading_tax": 8000
}