{
    "_id": "551085ece7798972cb579c3e",
    "tags": [
        "arcane enhancements"
    ],
    "icon": "icons/en/Arcane_Trickery.bec8b43aaa7a5ec1cb152f017516a69c.png",
    "thumb": "icons/en/thumbs/Arcane_Trickery.bec8b43aaa7a5ec1cb152f017516a69c.128x128.png",
    "icon_format": "land",
    "url_name": "arcane_trickery",
    "tradable": true,
    "en": {
        "item_name": "Arcane Trickery",
        "description": "<p>Arcane Trickery is an Arcane Enhancement that provides a chance on performing a melee finisher to grant the Warframe invisibility for a short time.</p>",
        "wiki_link": "http://warframe.wikia.com/wiki/Arcane_Trickery",
        "drop": []
    },
    "ru": {
        "item_name": "Мистический Обман",
        "description": "<p>Мистический Обман - обычный мистификатор, который позволяет уйти в невидимость с шансом 2,5% при добивании врага на 5 секунд. На максимальном ранге мистификатора шанс уйти в невидимость составляет 10%, а длительность невидимости 20 секунд.</p>",
        "wiki_link": "http://ru.warframe.wikia.com/wiki/%D0%9C%D0%B8%D1%81%D1%82%D0%B8%D1%87%D0%B5%D1%81%D0%BA%D0%B8%D0%B9_%D0%9E%D0%B1%D0%BC%D0%B0%D0%BD",
        "drop": []
    },
    "ko": {
        "item_name": "아케인 트리커리",
        "description": "<p>Arcane Trickery is an Arcane Enhancement that provides a chance on performing a melee finisher to grant the Warframe invisibility for a short time.</p>",
        "wiki_link": "http://warframe.wikia.com/wiki/Arcane_Trickery",
        "drop": []
    },
    "rarity": "uncommon",
    "mod_max_rank": 3,
    "trading_tax": 4000
}