{
    "_id": "551085dde7798972c228aed9",
    "tags": [
        "arcane enhancements"
    ],
    "icon": "icons/en/Arcane_Rage.5a83a065bab0b881f7b2d1c8a2dbd7a9.png",
    "thumb": "icons/en/thumbs/Arcane_Rage.5a83a065bab0b881f7b2d1c8a2dbd7a9.128x128.png",
    "icon_format": "land",
    "url_name": "arcane_rage",
    "tradable": true,
    "en": {
        "item_name": "Arcane Rage",
        "description": "<p>Arcane Rage is an Arcane Enhancement that upon achieving a headshot provides a chance to increase rifle damage for a short time.</p>",
        "wiki_link": "http://warframe.wikia.com/wiki/Arcane_Rage",
        "drop": []
    },
    "ru": {
        "item_name": "Мистический Гнев",
        "description": "<p>Мистический Гнев - необычный мистификатор, который увеличивает урон основного оружия на 5% в течение 4-ёх секунд при попадании в голову с шансом 2,5%. На максимальном ранге мистификатора бонус к урону основного оружия увеличен 20% в течение 16 секунд, а шанс срабатывания составляет 10%.</p>",
        "wiki_link": "http://ru.warframe.wikia.com/wiki/%D0%9C%D0%B8%D1%81%D1%82%D0%B8%D1%87%D0%B5%D1%81%D0%BA%D0%B8%D0%B9_%D0%93%D0%BD%D0%B5%D0%B2",
        "drop": []
    },
    "ko": {
        "item_name": "아케인 레이지",
        "description": "<p>Arcane Rage is an Arcane Enhancement that upon achieving a headshot provides a chance to increase rifle damage for a short time.</p>",
        "wiki_link": "http://warframe.wikia.com/wiki/Arcane_Rage",
        "drop": []
    },
    "rarity": "rare",
    "mod_max_rank": 3,
    "trading_tax": 8000
}