{
    "_id": "5df955131456970150510f27",
    "tags": [
        "parts",
        "weapons",
        "barrel",
        "prime"
    ],
    "icon": "icons/en/baza_prime_barrel.a5f9c94cee410a5af7726ee6b2fca2b5.png",
    "thumb": "icons/en/thumbs/baza_prime_barrel.a5f9c94cee410a5af7726ee6b2fca2b5.128x128.png",
    "icon_format": "land",
    "sub_icon": "sub_icons/barrel_128x128.png",
    "url_name": "baza_prime_barrel",
    "tradable": true,
    "part_of_set": [
        "5df955121456970150510f22",
        "5df955121456970150510f21",
        "5df955131456970150510f25",
        "5df955131456970150510f27",
        "5df955141456970150510f29"
    ],
    "set_root": false,
    "en": {
        "item_name": "Baza Prime Barrel",
        "description": "<p></p>",
        "wiki_link": "https://warframe.fandom.com/wiki/Baza_Prime",
        "drop": [
            {
                "name": "Lith W2 Uncommon",
                "link": null
            }
        ]
    },
    "ru": {
        "item_name": "База Прайм Ствол",
        "description": "<p></p>",
        "wiki_link": "https://warframe.fandom.com/wiki/Baza_Prime",
        "drop": [
            {
                "name": "Lith W2 Uncommon",
                "link": null
            }
        ]
    },
    "ko": {
        "item_name": "Baza Prime Barrel",
        "description": "<p></p>",
        "wiki_link": "https://warframe.fandom.com/wiki/Baza_Prime",
        "drop": [
            {
                "name": "Lith W2 Uncommon",
                "link": null
            }
        ]
    },
    "mastery_level": 10,
    "trading_tax": 2000
}