{
    "_id": "56fdbd5d2e26966de716e432",
    "tags": [
        "parts",
        "hilt"
    ],
    "icon": "icons/en/Broken_War_Set.a42d7af24d80abea602d631293f89b13.png",
    "thumb": "icons/en/thumbs/Broken_War_Set.a42d7af24d80abea602d631293f89b13.128x128.png",
    "icon_format": "land",
    "sub_icon": "sub_icons/generic_hilt_128x128.png",
    "url_name": "broken_war_hilt",
    "tradable": true,
    "part_of_set": [
        "582b0eb80af25410a4931616",
        "56fdbd6c2e26966de716e433",
        "56fdbd5d2e26966de716e432"
    ],
    "set_root": false,
    "en": {
        "item_name": "Broken War Hilt",
        "description": "<p>Broken War is a sword formed from a portion of the War greatsword, the weapon given to Stalker by the Sentient Hunhow. This weapon is granted as a reward for completing The Second Dream Quest.</p>",
        "wiki_link": "http://warframe.wikia.com/wiki/Broken_War",
        "drop": []
    },
    "ru": {
        "item_name": "Осколок Войны Рукоять",
        "description": "<p>Готовый меч можно получить после прохождения квеста Второй Сон. Меч будет прислан письмом после завершения квеста с дополнительным слотом и установленным Катализатором Орокин.</p>",
        "wiki_link": "http://ru.warframe.wikia.com/wiki/%D0%92%D0%BE%D0%B9%D0%BD%D0%B0_(%D0%BE%D1%80%D1%83%D0%B6%D0%B8%D0%B5)",
        "drop": []
    },
    "ko": {
        "item_name": "브로큰 워 힐트",
        "description": "<p>Broken War is a sword formed from a portion of the War greatsword, the weapon given to Stalker by the Sentient Hunhow. This weapon is granted as a reward for completing The Second Dream Quest.</p>",
        "wiki_link": "http://warframe.wikia.com/wiki/Broken_War",
        "drop": []
    },
    "mastery_level": 10,
    "trading_tax": 2000
}