{
    "_id": "5dff6e1014569703166749fc",
    "tags": [
        "avionic"
    ],
    "icon": "icons/en/bulkhead_(vidar).ff5f23593d0850514dd7b63c3a16d8c9.png",
    "thumb": "icons/en/thumbs/bulkhead_(vidar).ff5f23593d0850514dd7b63c3a16d8c9.128x128.png",
    "icon_format": "port",
    "url_name": "bulkhead_(vidar)",
    "tradable": true,
    "en": {
        "item_name": "Bulkhead (Vidar)",
        "description": "A Integrated Avionics that increases railjack hull (health).",
        "wiki_link": "https://warframe.fandom.com/wiki/Avionics#Bulkhead",
        "drop": []
    },
    "ru": {
        "item_name": "Bulkhead (Vidar)",
        "description": "A Integrated Avionics that increases railjack hull (health).",
        "wiki_link": "https://warframe.fandom.com/wiki/Avionics#Bulkhead",
        "drop": []
    },
    "ko": {
        "item_name": "Bulkhead (Vidar)",
        "description": "A Integrated Avionics that increases railjack hull (health).",
        "wiki_link": "https://warframe.fandom.com/wiki/Avionics#Bulkhead",
        "drop": []
    },
    "mod_max_rank": 4
}