{
    "_id": "5dff6e1014569703166749d9",
    "tags": [
        "avionic"
    ],
    "icon": "icons/en/fire_suppression.ff5f23593d0850514dd7b63c3a16d8c9.png",
    "thumb": "icons/en/thumbs/fire_suppression.ff5f23593d0850514dd7b63c3a16d8c9.128x128.png",
    "icon_format": "port",
    "url_name": "fire_suppression",
    "tradable": true,
    "en": {
        "item_name": "Fire Suppression",
        "description": "A Tactical Avionics that extinguishes up to x fire hazards which included electrical ones. cooldown of 300s.",
        "wiki_link": "https://warframe.fandom.com/wiki/Avionics#Fire_Suppression",
        "drop": []
    },
    "ru": {
        "item_name": "Fire Suppression",
        "description": "A Tactical Avionics that extinguishes up to x fire hazards which included electrical ones. cooldown of 300s.",
        "wiki_link": "https://warframe.fandom.com/wiki/Avionics#Fire_Suppression",
        "drop": []
    },
    "ko": {
        "item_name": "Fire Suppression",
        "description": "A Tactical Avionics that extinguishes up to x fire hazards which included electrical ones. cooldown of 300s.",
        "wiki_link": "https://warframe.fandom.com/wiki/Avionics#Fire_Suppression",
        "drop": []
    },
    "mod_max_rank": 4
}