{
    "_id": "5dff6e111456970316674a13",
    "tags": [
        "avionic"
    ],
    "icon": "icons/en/hyperstrike_(zetki).ff5f23593d0850514dd7b63c3a16d8c9.png",
    "thumb": "icons/en/thumbs/hyperstrike_(zetki).ff5f23593d0850514dd7b63c3a16d8c9.128x128.png",
    "icon_format": "port",
    "url_name": "hyperstrike_(zetki)",
    "tradable": true,
    "en": {
        "item_name": "Hyperstrike (Zetki)",
        "description": "A Integrated Avionics that increases turret damage (both pilot and gunner seats).",
        "wiki_link": "https://warframe.fandom.com/wiki/Avionics#Hyperstrike",
        "drop": []
    },
    "ru": {
        "item_name": "Hyperstrike (Zetki)",
        "description": "A Integrated Avionics that increases turret damage (both pilot and gunner seats).",
        "wiki_link": "https://warframe.fandom.com/wiki/Avionics#Hyperstrike",
        "drop": []
    },
    "ko": {
        "item_name": "Hyperstrike (Zetki)",
        "description": "A Integrated Avionics that increases turret damage (both pilot and gunner seats).",
        "wiki_link": "https://warframe.fandom.com/wiki/Avionics#Hyperstrike",
        "drop": []
    },
    "mod_max_rank": 7
}