{
    "_id": "5dff6e1014569703166749ee",
    "tags": [
        "avionic"
    ],
    "icon": "icons/en/ion_burn_(vidar).ff5f23593d0850514dd7b63c3a16d8c9.png",
    "thumb": "icons/en/thumbs/ion_burn_(vidar).ff5f23593d0850514dd7b63c3a16d8c9.128x128.png",
    "icon_format": "port",
    "url_name": "ion_burn_(vidar)",
    "tradable": true,
    "en": {
        "item_name": "Ion Burn (Vidar)",
        "description": "A Integrated Avionics that increases boost speed.",
        "wiki_link": "https://warframe.fandom.com/wiki/Avionics#Ion_Burn",
        "drop": []
    },
    "ru": {
        "item_name": "Ion Burn (Vidar)",
        "description": "A Integrated Avionics that increases boost speed.",
        "wiki_link": "https://warframe.fandom.com/wiki/Avionics#Ion_Burn",
        "drop": []
    },
    "ko": {
        "item_name": "Ion Burn (Vidar)",
        "description": "A Integrated Avionics that increases boost speed.",
        "wiki_link": "https://warframe.fandom.com/wiki/Avionics#Ion_Burn",
        "drop": []
    },
    "mod_max_rank": 1
}