{
    "_id": "5c1bd9f814a8e4006b1dad48",
    "tags": [
        "arcane enhancements",
        "operator"
    ],
    "icon": "icons/en/Magus_Melt.4b9f09f76e8d5c38d170209ecfda3481.png",
    "thumb": "icons/en/thumbs/Magus_Melt.4b9f09f76e8d5c38d170209ecfda3481.128x128.png",
    "icon_format": "land",
    "url_name": "magus_melt",
    "tradable": true,
    "en": {
        "item_name": "Magus Melt",
        "description": "<p>ON VOID DASH: Increase Heat Damage in Operator Mode by 5/10/15/20% for 2.5/5/7.5/10 s, stacking up to 2/3/4/5x.</p>",
        "wiki_link": "http://warframe.wikia.com/wiki/Magus_Melt",
        "drop": []
    },
    "ru": {
        "item_name": "Расплав Волхва",
        "description": "<p>Расплав Волхва - мистификатор для Оператора, который при использовании рывка бездны повышает урон огнём в режиме оператора на небольшой промежуток времени. Эффект может складываться несколько раз в зависимости от ранга мистификатора.</p>",
        "wiki_link": "https://warframe.fandom.com/ru/wiki/%D0%A0%D0%B0%D1%81%D0%BF%D0%BB%D0%B0%D0%B2_%D0%92%D0%BE%D0%BB%D1%85%D0%B2%D0%B0",
        "drop": []
    },
    "ko": {
        "item_name": "마구스 멜트",
        "description": "<p>ON VOID DASH: Increase Heat Damage in Operator Mode by 5/10/15/20% for 2.5/5/7.5/10 s, stacking up to 2/3/4/5x.</p>",
        "wiki_link": "http://warframe.wikia.com/wiki/Magus_Melt",
        "drop": []
    },
    "mod_max_rank": 3
}