{
    "_id": "5a0475096c4655012038ddc4",
    "tags": [
        "arcane enhancements",
        "operator"
    ],
    "icon": "icons/en/Magus_Nourish.a33f07304a72500072d20d13258e119b.png",
    "thumb": "icons/en/thumbs/Magus_Nourish.a33f07304a72500072d20d13258e119b.128x128.png",
    "icon_format": "land",
    "url_name": "magus_nourish",
    "tradable": true,
    "en": {
        "item_name": "Magus Nourish",
        "description": "<p>Magus Nourish is an Arcane Enhancement for the Operator that restores health over time to the Warframe after transferring out of it.</p>",
        "wiki_link": "http://warframe.wikia.com/wiki/Magus_Nourish",
        "drop": []
    },
    "ru": {
        "item_name": "Подпитка Волхва",
        "description": "<p>Подпитка Волхва - мистификатор для Оператора, который ежесекундно восстанавливает определенное количество здоровья Варфрейма при нахождении в режиме Оператора.</p>",
        "wiki_link": "http://ru.warframe.wikia.com/wiki/%D0%9F%D0%BE%D0%B4%D0%BF%D0%B8%D1%82%D0%BA%D0%B0_%D0%92%D0%BE%D0%BB%D1%85%D0%B2%D0%B0",
        "drop": []
    },
    "ko": {
        "item_name": "마구스 노리쉬",
        "description": "<p>Magus Nourish is an Arcane Enhancement for the Operator that restores health over time to the Warframe after transferring out of it.</p>",
        "wiki_link": "http://warframe.wikia.com/wiki/Magus_Nourish",
        "drop": []
    },
    "mod_max_rank": 3,
    "trading_tax": 0
}