{
    "_id": "5a0475086c4655012038ddbf",
    "tags": [
        "arcane enhancements",
        "operator"
    ],
    "icon": "icons/en/Magus_Vigor.473998d768bd420877df79cdd55c6188.png",
    "thumb": "icons/en/thumbs/Magus_Vigor.473998d768bd420877df79cdd55c6188.128x128.png",
    "icon_format": "land",
    "url_name": "magus_vigor",
    "tradable": true,
    "en": {
        "item_name": "Magus Vigor",
        "description": "<p>Magus Vigor is an Arcane Enhancement for the Operator that grants them additional health upon transferring out of the Warframe.</p>",
        "wiki_link": "http://warframe.wikia.com/wiki/Magus_Vigor",
        "drop": []
    },
    "ru": {
        "item_name": "Биоэнергия Волхва",
        "description": "<p>Биоэнергия Волхва - мистификатор для Оператора, который даёт дополнительное Здоровье Оператору.</p>",
        "wiki_link": "http://ru.warframe.wikia.com/wiki/%D0%91%D0%B8%D0%BE%D1%8D%D0%BD%D0%B5%D1%80%D0%B3%D0%B8%D1%8F_%D0%92%D0%BE%D0%BB%D1%85%D0%B2%D0%B0",
        "drop": []
    },
    "ko": {
        "item_name": "마구스 비거",
        "description": "<p>Magus Vigor is an Arcane Enhancement for the Operator that grants them additional health upon transferring out of the Warframe.</p>",
        "wiki_link": "http://warframe.wikia.com/wiki/Magus_Vigor",
        "drop": []
    },
    "mod_max_rank": 3,
    "trading_tax": 0
}