{
    "_id": "5dff6e111456970316674a08",
    "tags": [
        "avionic"
    ],
    "icon": "icons/en/particle_ram.ff5f23593d0850514dd7b63c3a16d8c9.png",
    "thumb": "icons/en/thumbs/particle_ram.ff5f23593d0850514dd7b63c3a16d8c9.128x128.png",
    "icon_format": "port",
    "url_name": "particle_ram",
    "tradable": true,
    "en": {
        "item_name": "Particle Ram",
        "description": "A Battle Avionics that creates a cone-shaped plasma ram at the head of the railjack (cone is around 3-4x as wide as the railjack at the widest point and around 2x as long) damaging things that collide with its hitbox and will last until manually launched, even persisting through mission transitions (but not the dry dock.) this ram can be launched off the front of the railjack as a projectile, dealing damage to anything it contacts until it dissipates. dissipation has no extra cost. drops from kosma taktis (earth) and elite exo flak (veil.)",
        "wiki_link": "https://warframe.fandom.com/wiki/Avionics#Particle_Ram",
        "drop": []
    },
    "ru": {
        "item_name": "Particle Ram",
        "description": "A Battle Avionics that creates a cone-shaped plasma ram at the head of the railjack (cone is around 3-4x as wide as the railjack at the widest point and around 2x as long) damaging things that collide with its hitbox and will last until manually launched, even persisting through mission transitions (but not the dry dock.) this ram can be launched off the front of the railjack as a projectile, dealing damage to anything it contacts until it dissipates. dissipation has no extra cost. drops from kosma taktis (earth) and elite exo flak (veil.)",
        "wiki_link": "https://warframe.fandom.com/wiki/Avionics#Particle_Ram",
        "drop": []
    },
    "ko": {
        "item_name": "Particle Ram",
        "description": "A Battle Avionics that creates a cone-shaped plasma ram at the head of the railjack (cone is around 3-4x as wide as the railjack at the widest point and around 2x as long) damaging things that collide with its hitbox and will last until manually launched, even persisting through mission transitions (but not the dry dock.) this ram can be launched off the front of the railjack as a projectile, dealing damage to anything it contacts until it dissipates. dissipation has no extra cost. drops from kosma taktis (earth) and elite exo flak (veil.)",
        "wiki_link": "https://warframe.fandom.com/wiki/Avionics#Particle_Ram",
        "drop": []
    },
    "mod_max_rank": 4
}