{
    "_id": "5dff6e1014569703166749d3",
    "tags": [
        "avionic"
    ],
    "icon": "icons/en/phasic_weave_(zetki).ff5f23593d0850514dd7b63c3a16d8c9.png",
    "thumb": "icons/en/thumbs/phasic_weave_(zetki).ff5f23593d0850514dd7b63c3a16d8c9.128x128.png",
    "icon_format": "port",
    "url_name": "phasic_weave_(zetki)",
    "tradable": true,
    "en": {
        "item_name": "Phasic Weave (Zetki)",
        "description": "A Integrated Avionics that reduces ionic damage.",
        "wiki_link": "https://warframe.fandom.com/wiki/Avionics#Phasic_Weave",
        "drop": []
    },
    "ru": {
        "item_name": "Phasic Weave (Zetki)",
        "description": "A Integrated Avionics that reduces ionic damage.",
        "wiki_link": "https://warframe.fandom.com/wiki/Avionics#Phasic_Weave",
        "drop": []
    },
    "ko": {
        "item_name": "Phasic Weave (Zetki)",
        "description": "A Integrated Avionics that reduces ionic damage.",
        "wiki_link": "https://warframe.fandom.com/wiki/Avionics#Phasic_Weave",
        "drop": []
    },
    "mod_max_rank": 4
}