{
    "_id": "5dff6e1014569703166749f5",
    "tags": [
        "avionic"
    ],
    "icon": "icons/en/polar_coil_(lavan).ff5f23593d0850514dd7b63c3a16d8c9.png",
    "thumb": "icons/en/thumbs/polar_coil_(lavan).ff5f23593d0850514dd7b63c3a16d8c9.128x128.png",
    "icon_format": "port",
    "url_name": "polar_coil_(lavan)",
    "tradable": true,
    "en": {
        "item_name": "Polar Coil (Lavan)",
        "description": "A Integrated Avionics that increases turret heat capacity.",
        "wiki_link": "https://warframe.fandom.com/wiki/Avionics#Polar_Coil",
        "drop": []
    },
    "ru": {
        "item_name": "Polar Coil (Lavan)",
        "description": "A Integrated Avionics that increases turret heat capacity.",
        "wiki_link": "https://warframe.fandom.com/wiki/Avionics#Polar_Coil",
        "drop": []
    },
    "ko": {
        "item_name": "Polar Coil (Lavan)",
        "description": "A Integrated Avionics that increases turret heat capacity.",
        "wiki_link": "https://warframe.fandom.com/wiki/Avionics#Polar_Coil",
        "drop": []
    },
    "mod_max_rank": 1
}