{
    "_id": "5dff6e111456970316674a18",
    "tags": [
        "avionic"
    ],
    "icon": "icons/en/ripload_(lavan).ff5f23593d0850514dd7b63c3a16d8c9.png",
    "thumb": "icons/en/thumbs/ripload_(lavan).ff5f23593d0850514dd7b63c3a16d8c9.128x128.png",
    "icon_format": "port",
    "url_name": "ripload_(lavan)",
    "tradable": true,
    "en": {
        "item_name": "Ripload (Lavan)",
        "description": "A Integrated Avionics that decreases ordnance reload time.",
        "wiki_link": "https://warframe.fandom.com/wiki/Avionics#Ripload",
        "drop": []
    },
    "ru": {
        "item_name": "Ripload (Lavan)",
        "description": "A Integrated Avionics that decreases ordnance reload time.",
        "wiki_link": "https://warframe.fandom.com/wiki/Avionics#Ripload",
        "drop": []
    },
    "ko": {
        "item_name": "Ripload (Lavan)",
        "description": "A Integrated Avionics that decreases ordnance reload time.",
        "wiki_link": "https://warframe.fandom.com/wiki/Avionics#Ripload",
        "drop": []
    },
    "mod_max_rank": 4
}