{
    "_id": "5dff7487145697033dc61a04",
    "tags": [
        "avionic"
    ],
    "icon": "icons/en/seeker_volley.ff5f23593d0850514dd7b63c3a16d8c9.png",
    "thumb": "icons/en/thumbs/seeker_volley.ff5f23593d0850514dd7b63c3a16d8c9.128x128.png",
    "icon_format": "port",
    "url_name": "seeker_volley",
    "tradable": true,
    "en": {
        "item_name": "Seeker Volley",
        "description": "A Battle Avionics that releases a volley of homing missiles at the cost of 100 flux energy. these missiles can make short work of fighters and ramsleds outside of the veil, but deal negligible damage to crewships regardless of their level. damage increases with the warhead avionic, but not with upgraded mki, mkii, mkiii rockets. drops from kosma cutter (earth) and elite exo cutter (veil)",
        "wiki_link": "https://warframe.fandom.com/wiki/Avionics#Seeker_Volley",
        "drop": []
    },
    "ru": {
        "item_name": "Seeker Volley",
        "description": "A Battle Avionics that releases a volley of homing missiles at the cost of 100 flux energy. these missiles can make short work of fighters and ramsleds outside of the veil, but deal negligible damage to crewships regardless of their level. damage increases with the warhead avionic, but not with upgraded mki, mkii, mkiii rockets. drops from kosma cutter (earth) and elite exo cutter (veil)",
        "wiki_link": "https://warframe.fandom.com/wiki/Avionics#Seeker_Volley",
        "drop": []
    },
    "ko": {
        "item_name": "Seeker Volley",
        "description": "A Battle Avionics that releases a volley of homing missiles at the cost of 100 flux energy. these missiles can make short work of fighters and ramsleds outside of the veil, but deal negligible damage to crewships regardless of their level. damage increases with the warhead avionic, but not with upgraded mki, mkii, mkiii rockets. drops from kosma cutter (earth) and elite exo cutter (veil)",
        "wiki_link": "https://warframe.fandom.com/wiki/Avionics#Seeker_Volley",
        "drop": []
    },
    "mod_max_rank": 4
}