{
    "_id": "5dff6e1014569703166749eb",
    "tags": [
        "avionic"
    ],
    "icon": "icons/en/winged_cyclone_(zetki).ff5f23593d0850514dd7b63c3a16d8c9.png",
    "thumb": "icons/en/thumbs/winged_cyclone_(zetki).ff5f23593d0850514dd7b63c3a16d8c9.128x128.png",
    "icon_format": "port",
    "url_name": "winged_cyclone_(zetki)",
    "tradable": true,
    "en": {
        "item_name": "Winged Cyclone (Zetki)",
        "description": "A Integrated Avionics that increase archwing speed by x% within 100m.",
        "wiki_link": "https://warframe.fandom.com/wiki/Avionics#Winged_Cyclone",
        "drop": []
    },
    "ru": {
        "item_name": "Winged Cyclone (Zetki)",
        "description": "A Integrated Avionics that increase archwing speed by x% within 100m.",
        "wiki_link": "https://warframe.fandom.com/wiki/Avionics#Winged_Cyclone",
        "drop": []
    },
    "ko": {
        "item_name": "Winged Cyclone (Zetki)",
        "description": "A Integrated Avionics that increase archwing speed by x% within 100m.",
        "wiki_link": "https://warframe.fandom.com/wiki/Avionics#Winged_Cyclone",
        "drop": []
    },
    "mod_max_rank": 7
}