{
    "_id": "5c5ca81a96e8d2003834fe72",
    "url_name": "fire_rate_/_attack_speed",
    "group": "default",
    "prefix": "Croni",
    "suffix": "Dra",
    "positive_is_negative": false,
    "exclusive_to": null,
    "en": {
        "effect": "Fire Rate / Attack Speed"
    },
    "ru": {
        "effect": "Скорострельность"
    },
    "ko": {
        "effect": "연사력 또는 공격 속도"
    }
}