{
    "_id": "5c5ca81a96e8d2003834fe69",
    "url_name": "channeling_efficiency",
    "group": "melee",
    "prefix": "Uti",
    "suffix": "Tia",
    "positive_is_negative": false,
    "exclusive_to": [
        "melee",
        "zaw"
    ],
    "en": {
        "effect": "Melee combo efficiency"
    },
    "ru": {
        "effect": "Эффективность комбоударов"
    },
    "ko": {
        "effect": "Melee combo efficiency"
    }
}