{
    "_id": "5c5ca81a96e8d2003834fe79",
    "url_name": "puncture_damage",
    "group": "default",
    "prefix": "Insi",
    "suffix": "Cak",
    "icon": "static/assets/icons/Puncture_b.be365092a02f06df41292bf21ffeafc0.svg",
    "positive_is_negative": false,
    "exclusive_to": null,
    "en": {
        "effect": "Puncture Damage"
    },
    "ru": {
        "effect": "Пронзающий урон"
    },
    "ko": {
        "effect": "관통 피해"
    }
}