{
    "_id": "5c5ca81a96e8d2003834fe7c",
    "url_name": "slash_damage",
    "group": "default",
    "prefix": "Sci",
    "suffix": "Sus",
    "icon": "static/assets/icons/Slash_b.7f498707339a19472934afec8a0b8b78.svg",
    "positive_is_negative": false,
    "exclusive_to": null,
    "en": {
        "effect": "Slash Damage"
    },
    "ru": {
        "effect": "Режущий урон"
    },
    "ko": {
        "effect": "베기 피해"
    }
}